Downloading Department of Education College Scorecard Data • rscorecard
…
Large pull

## median earnings for students who first enrolled in a public
## college in the New England or Mid-Atlantic regions: 10 years later
df <- sc_init() %>% 
    sc_filter(control == 1, region == 1:2, ccbasic == 1:24) %>% 
    sc_select(unitid, instnm, md_earn_wne_p10) %>% 
    sc_year(2009) %>%
    sc_get()
#> Large request will require: 2 additional pulls.
#> Request chunk 1
#> Request chunk 2
#> Request complete!
df
#> # A tibble: 280 x 4
#>    instnm                                    md_earn_wne_p10 unitid  year
#>    <chr>                                               <int>  <int> <dbl>
#>  1 Community College of Baltimore County               36200 434672  2009
#>  2 Suffolk County Community College                    38200 366395  2009
#>  3 Vermont Technical College                           42500 231165  2009
#>  4 Warren County Community College                     36200 245625  2009
#>  5 Carroll Community College                           33400 405872  2009
#>  6 Cecil College                                       34300 162104  2009
#>  7 Central Maine Community College                     33800 161077  2009
#>  8 University of Maryland-University College           52100 163204  2009
#>  9 University of Southern Maine                        36700 161554  2009
#> 10 Frederick Community College                         38100 162557  2009
#> # ... with 270 more rows
…
